{
    "fluentMethods": true,
    "relationships": [
        {
            "relationshipName": "parkingZone",
            "otherEntityName": "parkingZone",
            "relationshipType": "many-to-one",
            "relationshipValidateRules": [
                "required"
            ],
            "otherEntityField": "name"
        }
    ],
    "fields": [
        {
            "fieldName": "start",
            "fieldType": "ZonedDateTime",
            "fieldValidateRules": [
                "required"
            ]
        },
        {
            "fieldName": "finish",
            "fieldType": "ZonedDateTime"
        }
    ],
    "changelogDate": "20171109135729",
    "dto": "mapstruct",
    "service": "serviceClass",
    "entityTableName": "parking_event",
    "jpaMetamodelFiltering": false,
    "pagination": "no",
    "microserviceName": "parkingapi",
    "searchEngine": false
}
